{"Drake": {"tracks": {"href": "https://api.spotify.com/v1/search?query=artist%3ADrake&type=track&offset=0&limit=10", "items": [{"album": {"album_type": "single", "artists": [{"external_urls": {"spotify": "https://open.spotify.com/artist/3TVXtAsR1Inumwj472S9r4"}, "href": "https://api.spotify.com/v1/artists/3TVXtAsR1Inumwj472S9r4", "id": "3TVXtAsR1Inumwj472S9r4", "name": "Drake", "type": "artist", "uri": "spotify:artist:3TVXtAsR1Inumwj472S9r4"}], "available_markets": ["CA", "MX", "US"], "external_urls": {"spotify": "https://open.spotify.com/album/1r0DOIO0iC0bGpMtWRFdde"}, "href": "https://api.spotify.com/v1/albums/1r0DOIO0iC0bGpMtWRFdde", "id": "1r0DOIO0iC0bGpMtWRFdde", "images": [{"height": 640, "url": "https://i.scdn.co/image/6f3483e372bbb81cddb5fab16ebf50d2ac5009b9", "width": 640}, {"height": 300, "url": "https://i.scdn.co/image/2af1735e2281011bfc05353bfdee906338cbbb5b", "width": 300}, {"height": 64, "url": "https://i.scdn.co/image/8fdf1e6d19739b620107746d44332860d947f9df", "width": 64}], "name": "Scary Hours", "release_date": "2018-01-20", "release_date_precision": "day", "type": "album", "uri": "spotify:album:1r0DOIO0iC0bGpMtWRFdde"}, "artists": [{"external_urls": {"spotify": "https://open.spotify.com/artist/3TVXtAsR1Inumwj472S9r4"}, "href": "https://api.spotify.com/v1/artists/3TVXtAsR1Inumwj472S9r4", "id": "3TVXtAsR1Inumwj472S9r4", "name": "Drake", "type": "artist", "uri": "spotify:artist:3TVXtAsR1Inumwj472S9r4"}], "available_markets": ["CA", "MX", "US"], "disc_number": 1, "duration_ms": 198960, "explicit": true, "external_ids": {"isrc": "USCM51800004"}, "external_urls": {"spotify": "https://open.spotify.com/track/2XW4DbS6NddZxRPm5rMCeY"}, "href": "https://api.spotify.com/v1/tracks/2XW4DbS6NddZxRPm5rMCeY", "id": "2XW4DbS6NddZxRPm5rMCeY", "name": "God's Plan", "popularity": 98, "preview_url": null, "track_number": 1, "type": "track", "uri": "spotify:track:2XW4DbS6NddZxRPm5rMCeY"}, {"album": {"album_type": "single", "artists": [{"external_urls": {"spotify": "https://open.spotify.com/artist/3TVXtAsR1Inumwj472S9r4"}, "href": "https://api.spotify.com/v1/artists/3TVXtAsR1Inumwj472S9r4", "id": "3TVXtAsR1Inumwj472S9r4", "name": "Drake", "type": "artist", "uri": "spotify:artist:3TVXtAsR1Inumwj472S9r4"}], "available_markets": ["AD", "AR", "AT", "AU", "BE", "BG", "BO", "BR", "CA", "CH", "CL", "CO", "CR", "CY", "CZ", "DE", "DK", "DO", "EC", "EE", "ES", "FI", "FR", "GB", "GR", "GT", "HK", "HN", "HU", "ID", "IE", "IL", "IS", "IT", "JP", "LI", "LT", "LU", "LV", "MC", "MT", "MX", "MY", "NI", "NL", "NO", "NZ", "PA", "PE", "PH", "PL", "PT", "PY", "RO", "SE", "SG", "SK", "SV", "TH", "TR", "TW", "US", "UY", "VN", "ZA"], "external_urls": {"spotify": "https://open.spotify.com/album/1ZGxGu4fMROqmZsFSoepeE"}, "href": "https://api.spotify.com/v1/albums/1ZGxGu4fMROqmZsFSoepeE", "id": "1ZGxGu4fMROqmZsFSoepeE", "images": [{"height": 640, "url": "https://i.scdn.co/image/cc0a4440a6297ad9b44f4597aa8dda712ccee4e0", "width": 640}, {"height": 300, "url": "https://i.scdn.co/image/aad2b5b7154b8859f34748eabb1922a1a168bfdb", "width": 300}, {"height": 64, "url": "https://i.scdn.co/image/6aad5ea1c029f9fe93b43f8f91470e4cae5670f4", "width": 64}], "name": "Nice For What", "release_date": "2018-04-06", "release_date_precision": "day", "type": "album", "uri": "spotify:album:1ZGxGu4fMROqmZsFSoepeE"}, "artists": [{"external_urls": {"spotify": "https://open.spotify.com/artist/3TVXtAsR1Inumwj472S9r4"}, "href": "https://api.spotify.com/v1/artists/3TVXtAsR1Inumwj472S9r4", "id": "3TVXtAsR1Inumwj472S9r4", "name": "Drake", "type": "artist", "uri": "spotify:artist:3TVXtAsR1Inumwj472S9r4"}], "available_markets": ["AD", "AR", "AT", "AU", "BE", "BG", "BO", "BR", "CA", "CH", "CL", "CO", "CR", "CY", "CZ", "DE", "DK", "DO", "EC", "EE", "ES", "FI", "FR", "GB", "GR", "GT", "HK", "HN", "HU", "ID", "IE", "IL", "IS", "IT", "JP", "LI", "LT", "LU", "LV", "MC", "MT", "MX", "MY", "NI", "NL", "NO", "NZ", "PA", "PE", "PH", "PL", "PT", "PY", "RO", "SE", "SG", "SK", "SV", "TH", "TR", "TW", "US", "UY", "VN", "ZA"], "disc_number": 1, "duration_ms": 210925, "explicit": true, "external_ids": {"isrc": "USCM51800077"}, "external_urls": {"spotify": "https://open.spotify.com/track/1cTZMwcBJT0Ka3UJPXOeeN"}, "href": "https://api.spotify.com/v1/tracks/1cTZMwcBJT0Ka3UJPXOeeN", "id": "1cTZMwcBJT0Ka3UJPXOeeN", "name": "Nice For What", "popularity": 96, "preview_url": null, "track_number": 1, "type": "track", "uri": "spotify:track:1cTZMwcBJT0Ka3UJPXOeeN"}, {"album": {"album_type": "single", "artists": [{"external_urls": {"spotify": "https://open.spotify.com/artist/4TEJudQY2pXxVHPE3gD2EU"}, "href": "https://api.spotify.com/v1/artists/4TEJudQY2pXxVHPE3gD2EU", "id": "4TEJudQY2pXxVHPE3gD2EU", "name": "BlocBoy JB", "type": "artist", "uri": "spotify:artist:4TEJudQY2pXxVHPE3gD2EU"}, {"external_urls": {"spotify": "https://open.spotify.com/artist/3TVXtAsR1Inumwj472S9r4"}, "href": "https://api.spotify.com/v1/artists/3TVXtAsR1Inumwj472S9r4", "id": "3TVXtAsR1Inumwj472S9r4", "name": "Drake", "type": "artist", "uri": "spotify:artist:3TVXtAsR1Inumwj472S9r4"}], "available_markets": ["AD", "AR", "AT", "AU", "BE", "BG", "BO", "BR", "CA", "CH", "CL", "CO", "CR", "CY", "CZ", "DE", "DK", "DO", "EC", "EE", "ES", "FI", "FR", "GB", "GR", "GT", "HK", "HN", "HU", "ID", "IE", "IL", "IS", "IT", "JP", "LI", "LT", "LU", "LV", "MC", "MT", "MX", "MY", "NI", "NL", "NO", "NZ", "PA", "PE", "PH", "PL", "PT", "PY", "RO", "SE", "SG", "SK", "SV", "TH", "TR", "TW", "US", "UY", "VN", "ZA"], "external_urls": {"spotify": "https://open.spotify.com/album/7GGoJfKFOwDNuiLjjfzyCS"}, "href": "https://api.spotify.com/v1/albums/7GGoJfKFOwDNuiLjjfzyCS", "id": "7GGoJfKFOwDNuiLjjfzyCS", "images": [{"height": 640, "url": "https://i.scdn.co/image/6b7a1cdbf9ebfd3ca696d597136b51fbf8d15471", "width": 640}, {"height": 300, "url": "https://i.scdn.co/image/7629502bb5e7dc2d6eac4342f553b89141d3f006", "width": 300}, {"height": 64, "url": "https://i.scdn.co/image/30b01ebddb7b9843d6210a7ef32127327ebb276c", "width": 64}], "name": "Look Alive (feat. Drake)", "release_date": "2018-02-09", "release_date_precision": "day", "type": "album", "uri": "spotify:album:7GGoJfKFOwDNuiLjjfzyCS"}, "artists": [{"external_urls": {"spotify": "https://open.spotify.com/artist/4TEJudQY2pXxVHPE3gD2EU"}, "href": "https://api.spotify.com/v1/artists/4TEJudQY2pXxVHPE3gD2EU", "id": "4TEJudQY2pXxVHPE3gD2EU", "name": "BlocBoy JB", "type": "artist", "uri": "spotify:artist:4TEJudQY2pXxVHPE3gD2EU"}, {"external_urls": {"spotify": "https://open.spotify.com/artist/3TVXtAsR1Inumwj472S9r4"}, "href": "https://api.spotify.com/v1/artists/3TVXtAsR1Inumwj472S9r4", "id": "3TVXtAsR1Inumwj472S9r4", "name": "Drake", "type": "artist", "uri": "spotify:artist:3TVXtAsR1Inumwj472S9r4"}], "available_markets": ["AD", "AR", "AT", "AU", "BE", "BG", "BO", "BR", "CA", "CH", "CL", "CO", "CR", "CY", "CZ", "DE", "DK", "DO", "EC", "EE", "ES", "FI", "FR", "GB", "GR", "GT", "HK", "HN", "HU", "ID", "IE", "IL", "IS", "IT", "JP", "LI", "LT", "LU", "LV", "MC", "MT", "MX", "MY", "NI", "NL", "NO", "NZ", "PA", "PE", "PH", "PL", "PT", "PY", "RO", "SE", "SG", "SK", "SV", "TH", "TR", "TW", "US", "UY", "VN", "ZA"], "disc_number": 1, "duration_ms": 181263, "explicit": true, "external_ids": {"isrc": "USWB11800211"}, "external_urls": {"spotify": "https://open.spotify.com/track/4qKcDkK6siZ7Jp1Jb4m0aL"}, "href": "https://api.spotify.com/v1/tracks/4qKcDkK6siZ7Jp1Jb4m0aL", "id": "4qKcDkK6siZ7Jp1Jb4m0aL", "name": "Look Alive (feat. Drake)", "popularity": 98, "preview_url": "https://p.scdn.co/mp3-preview/4c9c1f93e4b6032679d772a0a8c3c28cef5a42ae?cid=bebfa96fcce14924919671fa63dbe241", "track_number": 1, "type": "track", "uri": "spotify:track:4qKcDkK6siZ7Jp1Jb4m0aL"}, {"album": {"album_type": "album", "artists": [{"external_urls": {"spotify": "https://open.spotify.com/artist/6oMuImdp5ZcFhWP0ESe6mG"}, "href": "https://api.spotify.com/v1/artists/6oMuImdp5ZcFhWP0ESe6mG", "id": "6oMuImdp5ZcFhWP0ESe6mG", "name": "Migos", "type": "artist", "uri": "spotify:artist:6oMuImdp5ZcFhWP0ESe6mG"}], "available_markets": ["CA", "MX", "US"], "external_urls": {"spotify": "https://open.spotify.com/album/7fd7SEK25VS3gJAUgSwL6y"}, "href": "https://api.spotify.com/v1/albums/7fd7SEK25VS3gJAUgSwL6y", "id": "7fd7SEK25VS3gJAUgSwL6y", "images": [{"height": 640, "url": "https://i.scdn.co/image/79ef8fb6e772a47e3e045a747376dca7b900583e", "width": 640}, {"height": 300, "url": "https://i.scdn.co/image/dfc7c4f6f238bdd64f37c707e82a9b91cf3a0910", "width": 300}, {"height": 64, "url": "https://i.scdn.co/image/201f4f292e8b418759f811bed70b69855ac69960", "width": 64}], "name": "Culture II", "release_date": "2018-01-26", "release_date_precision": "day", "type": "album", "uri": "spotify:album:7fd7SEK25VS3gJAUgSwL6y"}, "artists": [{"external_urls": {"spotify": "https://open.spotify.com/artist/6oMuImdp5ZcFhWP0ESe6mG"}, "href": "https://api.spotify.com/v1/artists/6oMuImdp5ZcFhWP0ESe6mG", "id": "6oMuImdp5ZcFhWP0ESe6mG", "name": "Migos", "type": "artist", "uri": "spotify:artist:6oMuImdp5ZcFhWP0ESe6mG"}, {"external_urls": {"spotify": "https://open.spotify.com/artist/3TVXtAsR1Inumwj472S9r4"}, "href": "https://api.spotify.com/v1/artists/3TVXtAsR1Inumwj472S9r4", "id": "3TVXtAsR1Inumwj472S9r4", "name": "Drake", "type": "artist", "uri": "spotify:artist:3TVXtAsR1Inumwj472S9r4"}], "available_markets": ["CA", "MX", "US"], "disc_number": 1, "duration_ms": 276147, "explicit": true, "external_ids": {"isrc": "USUM71800983"}, "external_urls": {"spotify": "https://open.spotify.com/track/6n4U3TlzUGhdSFbUUhTvLP"}, "href": "https://api.spotify.com/v1/tracks/6n4U3TlzUGhdSFbUUhTvLP", "id": "6n4U3TlzUGhdSFbUUhTvLP", "name": "Walk It Talk It", "popularity": 90, "preview_url": null, "track_number": 6, "type": "track", "uri": "spotify:track:6n4U3TlzUGhdSFbUUhTvLP"}, {"album": {"album_type": "single", "artists": [{"external_urls": {"spotify": "https://open.spotify.com/artist/3TVXtAsR1Inumwj472S9r4"}, "href": "https://api.spotify.com/v1/artists/3TVXtAsR1Inumwj472S9r4", "id": "3TVXtAsR1Inumwj472S9r4", "name": "Drake", "type": "artist", "uri": "spotify:artist:3TVXtAsR1Inumwj472S9r4"}], "available_markets": ["CA", "GB", "ID", "IE", "MX", "MY", "SG", "TR", "US"], "external_urls": {"spotify": "https://open.spotify.com/album/7smv6CS3BkOaVLgJn4XYiM"}, "href": "https://api.spotify.com/v1/albums/7smv6CS3BkOaVLgJn4XYiM", "id": "7smv6CS3BkOaVLgJn4XYiM", "images": [{"height": 640, "url": "https://i.scdn.co/image/60b5deba7371315a687ebbc74fe460542cb05606", "width": 640}, {"height": 300, "url": "https://i.scdn.co/image/3b8759a52a47c514cc977078beae988d279ca311", "width": 300}, {"height": 64, "url": "https://i.scdn.co/image/2e558f0edee9a275f4913943d72aaa93b4bd33ef", "width": 64}], "name": "Nice For What", "release_date": "2018-04-05", "release_date_precision": "day", "type": "album", "uri": "spotify:album:7smv6CS3BkOaVLgJn4XYiM"}, "artists": [{"external_urls": {"spotify": "https://open.spotify.com/artist/3TVXtAsR1Inumwj472S9r4"}, "href": "https://api.spotify.com/v1/artists/3TVXtAsR1Inumwj472S9r4", "id": "3TVXtAsR1Inumwj472S9r4", "name": "Drake", "type": "artist", "uri": "spotify:artist:3TVXtAsR1Inumwj472S9r4"}], "available_markets": ["CA", "GB", "ID", "IE", "MX", "MY", "SG", "TR", "US"], "disc_number": 1, "duration_ms": 210925, "explicit": false, "external_ids": {"isrc": "USCM51800078"}, "external_urls": {"spotify": "https://open.spotify.com/track/7liAO2OqrFMVvM7oiLo0m0"}, "href": "https://api.spotify.com/v1/tracks/7liAO2OqrFMVvM7oiLo0m0", "id": "7liAO2OqrFMVvM7oiLo0m0", "name": "Nice For What", "popularity": 67, "preview_url": null, "track_number": 1, "type": "track", "uri": "spotify:track:7liAO2OqrFMVvM7oiLo0m0"}, {"album": {"album_type": "album", "artists": [{"external_urls": {"spotify": "https://open.spotify.com/artist/3TVXtAsR1Inumwj472S9r4"}, "href": "https://api.spotify.com/v1/artists/3TVXtAsR1Inumwj472S9r4", "id": "3TVXtAsR1Inumwj472S9r4", "name": "Drake", "type": "artist", "uri": "spotify:artist:3TVXtAsR1Inumwj472S9r4"}], "available_markets": ["CA", "MX", "US"], "external_urls": {"spotify": "https://open.spotify.com/album/1lXY618HWkwYKJWBRYR4MK"}, "href": "https://api.spotify.com/v1/albums/1lXY618HWkwYKJWBRYR4MK", "id": "1lXY618HWkwYKJWBRYR4MK", "images": [{"height": 640, "url": "https://i.scdn.co/image/974010663ebd1e267ac11de88e07647eefbfa19d", "width": 640}, {"height": 300, "url": "https://i.scdn.co/image/3acc34a1f6b494f2a00ff916c54d6bc63fb7b0dc", "width": 300}, {"height": 64, "url": "https://i.scdn.co/image/260edf8840fdda1ce1d322ca1a15fd39175a74ff", "width": 64}], "name": "More Life", "release_date": "2017-03-18", "release_date_precision": "day", "type": "album", "uri": "spotify:album:1lXY618HWkwYKJWBRYR4MK"}, "artists": [{"external_urls": {"spotify": "https://open.spotify.com/artist/3TVXtAsR1Inumwj472S9r4"}, "href": "https://api.spotify.com/v1/artists/3TVXtAsR1Inumwj472S9r4", "id": "3TVXtAsR1Inumwj472S9r4", "name": "Drake", "type": "artist", "uri": "spotify:artist:3TVXtAsR1Inumwj472S9r4"}], "available_markets": ["CA", "MX", "US"], "disc_number": 1, "duration_ms": 298940, "explicit": true, "external_ids": {"isrc": "USCM51700072"}, "external_urls": {"spotify": "https://open.spotify.com/track/5mCPDVBb16L4XQwDdbRUpz"}, "href": "https://api.spotify.com/v1/tracks/5mCPDVBb16L4XQwDdbRUpz", "id": "5mCPDVBb16L4XQwDdbRUpz", "name": "Passionfruit", "popularity": 82, "preview_url": null, "track_number": 3, "type": "track", "uri": "spotify:track:5mCPDVBb16L4XQwDdbRUpz"}, {"album": {"album_type": "album", "artists": [{"external_urls": {"spotify": "https://open.spotify.com/artist/3TVXtAsR1Inumwj472S9r4"}, "href": "https://api.spotify.com/v1/artists/3TVXtAsR1Inumwj472S9r4", "id": "3TVXtAsR1Inumwj472S9r4", "name": "Drake", "type": "artist", "uri": "spotify:artist:3TVXtAsR1Inumwj472S9r4"}], "available_markets": ["CA", "MX", "US"], "external_urls": {"spotify": "https://open.spotify.com/album/1lXY618HWkwYKJWBRYR4MK"}, "href": "https://api.spotify.com/v1/albums/1lXY618HWkwYKJWBRYR4MK", "id": "1lXY618HWkwYKJWBRYR4MK", "images": [{"height": 640, "url": "https://i.scdn.co/image/974010663ebd1e267ac11de88e07647eefbfa19d", "width": 640}, {"height": 300, "url": "https://i.scdn.co/image/3acc34a1f6b494f2a00ff916c54d6bc63fb7b0dc", "width": 300}, {"height": 64, "url": "https://i.scdn.co/image/260edf8840fdda1ce1d322ca1a15fd39175a74ff", "width": 64}], "name": "More Life", "release_date": "2017-03-18", "release_date_precision": "day", "type": "album", "uri": "spotify:album:1lXY618HWkwYKJWBRYR4MK"}, "artists": [{"external_urls": {"spotify": "https://open.spotify.com/artist/3TVXtAsR1Inumwj472S9r4"}, "href": "https://api.spotify.com/v1/artists/3TVXtAsR1Inumwj472S9r4", "id": "3TVXtAsR1Inumwj472S9r4", "name": "Drake", "type": "artist", "uri": "spotify:artist:3TVXtAsR1Inumwj472S9r4"}], "available_markets": ["CA", "MX", "US"], "disc_number": 1, "duration_ms": 210937, "explicit": true, "external_ids": {"isrc": "USCM51700084"}, "external_urls": {"spotify": "https://open.spotify.com/track/343YBumqHu19cGoGARUTsd"}, "href": "https://api.spotify.com/v1/tracks/343YBumqHu19cGoGARUTsd", "id": "343YBumqHu19cGoGARUTsd", "name": "Fake Love", "popularity": 80, "preview_url": null, "track_number": 20, "type": "track", "uri": "spotify:track:343YBumqHu19cGoGARUTsd"}, {"album": {"album_type": "single", "artists": [{"external_urls": {"spotify": "https://open.spotify.com/artist/5wPoxI5si3eJsYYwyXV4Wi"}, "href": "https://api.spotify.com/v1/artists/5wPoxI5si3eJsYYwyXV4Wi", "id": "5wPoxI5si3eJsYYwyXV4Wi", "name": "N.E.R.D", "type": "artist", "uri": "spotify:artist:5wPoxI5si3eJsYYwyXV4Wi"}, {"external_urls": {"spotify": "https://open.spotify.com/artist/5pKCCKE2ajJHZ9KAiaK11H"}, "href": "https://api.spotify.com/v1/artists/5pKCCKE2ajJHZ9KAiaK11H", "id": "5pKCCKE2ajJHZ9KAiaK11H", "name": "Rihanna", "type": "artist", "uri": "spotify:artist:5pKCCKE2ajJHZ9KAiaK11H"}], "available_markets": ["AD", "AR", "AT", "AU", "BE", "BG", "BO", "BR", "CA", "CH", "CL", "CO", "CR", "CY", "CZ", "DE", "DK", "DO", "EC", "EE", "ES", "FI", "FR", "GB", "GR", "GT", "HK", "HN", "HU", "ID", "IE", "IL", "IS", "IT", "JP", "LI", "LT", "LU", "LV", "MC", "MT", "MX", "MY", "NI", "NL", "NO", "NZ", "PA", "PE", "PH", "PL", "PT", "PY", "RO", "SE", "SG", "SK", "SV", "TH", "TR", "TW", "US", "UY", "VN", "ZA"], "external_urls": {"spotify": "https://open.spotify.com/album/2TKbBIv3QaM46sT9BtHKm1"}, "href": "https://api.spotify.com/v1/albums/2TKbBIv3QaM46sT9BtHKm1", "id": "2TKbBIv3QaM46sT9BtHKm1", "images": [{"height": 640, "url": "https://i.scdn.co/image/ad78f71bda7a1df6c9f54bbc541b862e31bac4a5", "width": 640}, {"height": 300, "url": "https://i.scdn.co/image/abb89bff479b6790a823a23a628d51633c2a2edf", "width": 300}, {"height": 64, "url": "https://i.scdn.co/image/c8677b4418088baf6bc5b32e892c3bc23f3b3616", "width": 64}], "name": "Lemon (Drake Remix)", "release_date": "2018-03-18", "release_date_precision": "day", "type": "album", "uri": "spotify:album:2TKbBIv3QaM46sT9BtHKm1"}, "artists": [{"external_urls": {"spotify": "https://open.spotify.com/artist/5wPoxI5si3eJsYYwyXV4Wi"}, "href": "https://api.spotify.com/v1/artists/5wPoxI5si3eJsYYwyXV4Wi", "id": "5wPoxI5si3eJsYYwyXV4Wi", "name": "N.E.R.D", "type": "artist", "uri": "spotify:artist:5wPoxI5si3eJsYYwyXV4Wi"}, {"external_urls": {"spotify": "https://open.spotify.com/artist/5pKCCKE2ajJHZ9KAiaK11H"}, "href": "https://api.spotify.com/v1/artists/5pKCCKE2ajJHZ9KAiaK11H", "id": "5pKCCKE2ajJHZ9KAiaK11H", "name": "Rihanna", "type": "artist", "uri": "spotify:artist:5pKCCKE2ajJHZ9KAiaK11H"}, {"external_urls": {"spotify": "https://open.spotify.com/artist/3TVXtAsR1Inumwj472S9r4"}, "href": "https://api.spotify.com/v1/artists/3TVXtAsR1Inumwj472S9r4", "id": "3TVXtAsR1Inumwj472S9r4", "name": "Drake", "type": "artist", "uri": "spotify:artist:3TVXtAsR1Inumwj472S9r4"}], "available_markets": ["AD", "AR", "AT", "AU", "BE", "BG", "BO", "BR", "CA", "CH", "CL", "CO", "CR", "CY", "CZ", "DE", "DK", "DO", "EC", "EE", "ES", "FI", "FR", "GB", "GR", "GT", "HK", "HN", "HU", "ID", "IE", "IL", "IS", "IT", "JP", "LI", "LT", "LU", "LV", "MC", "MT", "MX", "MY", "NI", "NL", "NO", "NZ", "PA", "PE", "PH", "PL", "PT", "PY", "RO", "SE", "SG", "SK", "SV", "TH", "TR", "TW", "US", "UY", "VN", "ZA"], "disc_number": 1, "duration_ms": 226106, "explicit": true, "external_ids": {"isrc": "USSM11802961"}, "external_urls": {"spotify": "https://open.spotify.com/track/739vCwA3EpBSkk3uDsI2wB"}, "href": "https://api.spotify.com/v1/tracks/739vCwA3EpBSkk3uDsI2wB", "id": "739vCwA3EpBSkk3uDsI2wB", "name": "Lemon - Drake Remix", "popularity": 89, "preview_url": "https://p.scdn.co/mp3-preview/050235751513a5f9ba890e9d46510bdd709c841a?cid=bebfa96fcce14924919671fa63dbe241", "track_number": 1, "type": "track", "uri": "spotify:track:739vCwA3EpBSkk3uDsI2wB"}, {"album": {"album_type": "album", "artists": [{"external_urls": {"spotify": "https://open.spotify.com/artist/3TVXtAsR1Inumwj472S9r4"}, "href": "https://api.spotify.com/v1/artists/3TVXtAsR1Inumwj472S9r4", "id": "3TVXtAsR1Inumwj472S9r4", "name": "Drake", "type": "artist", "uri": "spotify:artist:3TVXtAsR1Inumwj472S9r4"}], "available_markets": ["CA", "MX", "US"], "external_urls": {"spotify": "https://open.spotify.com/album/1lXY618HWkwYKJWBRYR4MK"}, "href": "https://api.spotify.com/v1/albums/1lXY618HWkwYKJWBRYR4MK", "id": "1lXY618HWkwYKJWBRYR4MK", "images": [{"height": 640, "url": "https://i.scdn.co/image/974010663ebd1e267ac11de88e07647eefbfa19d", "width": 640}, {"height": 300, "url": "https://i.scdn.co/image/3acc34a1f6b494f2a00ff916c54d6bc63fb7b0dc", "width": 300}, {"height": 64, "url": "https://i.scdn.co/image/260edf8840fdda1ce1d322ca1a15fd39175a74ff", "width": 64}], "name": "More Life", "release_date": "2017-03-18", "release_date_precision": "day", "type": "album", "uri": "spotify:album:1lXY618HWkwYKJWBRYR4MK"}, "artists": [{"external_urls": {"spotify": "https://open.spotify.com/artist/3TVXtAsR1Inumwj472S9r4"}, "href": "https://api.spotify.com/v1/artists/3TVXtAsR1Inumwj472S9r4", "id": "3TVXtAsR1Inumwj472S9r4", "name": "Drake", "type": "artist", "uri": "spotify:artist:3TVXtAsR1Inumwj472S9r4"}], "available_markets": ["CA", "MX", "US"], "disc_number": 1, "duration_ms": 219692, "explicit": true, "external_ids": {"isrc": "USCM51700048"}, "external_urls": {"spotify": "https://open.spotify.com/track/6n3HGiq4v35D6eFOSwqYuo"}, "href": "https://api.spotify.com/v1/tracks/6n3HGiq4v35D6eFOSwqYuo", "id": "6n3HGiq4v35D6eFOSwqYuo", "name": "Teenage Fever", "popularity": 78, "preview_url": null, "track_number": 14, "type": "track", "uri": "spotify:track:6n3HGiq4v35D6eFOSwqYuo"}, {"album": {"album_type": "single", "artists": [{"external_urls": {"spotify": "https://open.spotify.com/artist/3TVXtAsR1Inumwj472S9r4"}, "href": "https://api.spotify.com/v1/artists/3TVXtAsR1Inumwj472S9r4", "id": "3TVXtAsR1Inumwj472S9r4", "name": "Drake", "type": "artist", "uri": "spotify:artist:3TVXtAsR1Inumwj472S9r4"}], "available_markets": ["CA", "MX", "US"], "external_urls": {"spotify": "https://open.spotify.com/album/1r0DOIO0iC0bGpMtWRFdde"}, "href": "https://api.spotify.com/v1/albums/1r0DOIO0iC0bGpMtWRFdde", "id": "1r0DOIO0iC0bGpMtWRFdde", "images": [{"height": 640, "url": "https://i.scdn.co/image/6f3483e372bbb81cddb5fab16ebf50d2ac5009b9", "width": 640}, {"height": 300, "url": "https://i.scdn.co/image/2af1735e2281011bfc05353bfdee906338cbbb5b", "width": 300}, {"height": 64, "url": "https://i.scdn.co/image/8fdf1e6d19739b620107746d44332860d947f9df", "width": 64}], "name": "Scary Hours", "release_date": "2018-01-20", "release_date_precision": "day", "type": "album", "uri": "spotify:album:1r0DOIO0iC0bGpMtWRFdde"}, "artists": [{"external_urls": {"spotify": "https://open.spotify.com/artist/3TVXtAsR1Inumwj472S9r4"}, "href": "https://api.spotify.com/v1/artists/3TVXtAsR1Inumwj472S9r4", "id": "3TVXtAsR1Inumwj472S9r4", "name": "Drake", "type": "artist", "uri": "spotify:artist:3TVXtAsR1Inumwj472S9r4"}], "available_markets": ["CA", "MX", "US"], "disc_number": 1, "duration_ms": 255840, "explicit": true, "external_ids": {"isrc": "USCM51800006"}, "external_urls": {"spotify": "https://open.spotify.com/track/5goGDc74vVREyN8al8CkPh"}, "href": "https://api.spotify.com/v1/tracks/5goGDc74vVREyN8al8CkPh", "id": "5goGDc74vVREyN8al8CkPh", "name": "Diplomatic Immunity", "popularity": 77, "preview_url": null, "track_number": 2, "type": "track", "uri": "spotify:track:5goGDc74vVREyN8al8CkPh"}], "limit": 10, "next": "https://api.spotify.com/v1/search?query=artist%3ADrake&type=track&offset=10&limit=10", "offset": 0, "previous": null, "total": 8091}}}